        <li><a target="_blank" href="https://www.linkedin.com/company/isonexcapital/" title="LinkedIn"><i class="fa fa-linkedin"></i></a></li>
        <li><a target="_blank" href="https://t.me/isonexio"><i class="fa fa-telegram" aria-hidden="true"></i></a></li>
        <li><a target="_blank" href="https://medium.com/isonex"><i class="fa fa-medium" aria-hidden="true"></i></a></li>
        <li><a target="_blank" href="https://www.facebook.com/isonexcapital/"> <i class="fa fa-facebook" aria-hidden="true"></i></a></li>
        <li><a target="_blank" href="https://twitter.com/isonexcapital"> <i class="fa fa-twitter" aria-hidden="true"></i></a></li>
        <li><a target="_blank" href="https://www.reddit.com/r/isonex/"><i class="fa fa-reddit" aria-hidden="true"></i></a></li>

        linkedin
        telegram
        medium
        facebook
        twitter
        reddit
        