<?xml version="1.0" encoding="UTF-8" standalone="no"?>
<!-- Created with Inkscape (http://www.inkscape.org/) -->

<svg
   xmlns:dc="http://purl.org/dc/elements/1.1/"
   xmlns:cc="http://creativecommons.org/ns#"
   xmlns:rdf="http://www.w3.org/1999/02/22-rdf-syntax-ns#"
   xmlns:svg="http://www.w3.org/2000/svg"
   xmlns="http://www.w3.org/2000/svg"
   xmlns:xlink="http://www.w3.org/1999/xlink"
   xmlns:sodipodi="http://sodipodi.sourceforge.net/DTD/sodipodi-0.dtd"
   xmlns:inkscape="http://www.inkscape.org/namespaces/inkscape"
   width="1802.2999"
   height="1090.879"
   viewBox="0 0 476.8585 288.62841"
   version="1.1"
   id="svg8"
   inkscape:version="0.92.2 (5c3e80d, 2017-08-06)"
   sodipodi:docname="logo-base.svg"
   inkscape:export-filename="D:\code\isonex\front\isonex\src\images\logo ab design.png"
   inkscape:export-xdpi="19.08"
   inkscape:export-ydpi="19.08">
  <defs
     id="defs2">
    <linearGradient
       id="linearGradient1521"
       inkscape:collect="always">
      <stop
         id="stop1517"
         offset="0"
         style="stop-color:#131336;stop-opacity:0.50196081" />
      <stop
         id="stop1519"
         offset="1"
         style="stop-color:#000080;stop-opacity:0;" />
    </linearGradient>
    <filter
       inkscape:label="Blur Double"
       inkscape:menu="Blurs"
       inkscape:menu-tooltip="Overlays two copies with different blur amounts and modifiable blend and composite"
       style="color-interpolation-filters:sRGB;"
       id="filter1515">
      <feGaussianBlur
         stdDeviation="5"
         result="fbSourceGraphic"
         id="feGaussianBlur1507" />
      <feGaussianBlur
         stdDeviation="0.01"
         in="SourceGraphic"
         result="result1"
         id="feGaussianBlur1509" />
      <feComposite
         in2="result1"
         operator="arithmetic"
         in="fbSourceGraphic"
         k2="0.5"
         k3="0.5"
         result="result2"
         id="feComposite1511" />
      <feBlend
         in2="fbSourceGraphic"
         mode="normal"
         result="fbSourceGraphic"
         id="feBlend1513" />
      <feColorMatrix
         result="fbSourceGraphicAlpha"
         in="fbSourceGraphic"
         values="0 0 0 -1 0 0 0 0 -1 0 0 0 0 -1 0 0 0 0 1 0"
         id="feColorMatrix1531" />
      <feGaussianBlur
         id="feGaussianBlur1533"
         stdDeviation="5"
         result="fbSourceGraphic"
         in="fbSourceGraphic" />
      <feGaussianBlur
         id="feGaussianBlur1535"
         stdDeviation="0.01"
         in="fbSourceGraphic"
         result="result1" />
      <feComposite
         in2="result1"
         id="feComposite1537"
         operator="arithmetic"
         in="fbSourceGraphic"
         k2="0.5"
         k3="0.5"
         result="result2" />
      <feBlend
         in2="fbSourceGraphic"
         id="feBlend1539"
         mode="normal"
         result="result3" />
    </filter>
    <linearGradient
       inkscape:collect="always"
       xlink:href="#linearGradient1521"
       id="linearGradient1529"
       gradientUnits="userSpaceOnUse"
       x1="754.83575"
       y1="-916.15845"
       x2="570.22363"
       y2="-1313.1296" />
  </defs>
  <sodipodi:namedview
     id="base"
     pagecolor="#000000"
     bordercolor="#666666"
     borderopacity="1.0"
     inkscape:pageopacity="0"
     inkscape:pageshadow="2"
     inkscape:zoom="0.35"
     inkscape:cx="1023.2998"
     inkscape:cy="580.62634"
     inkscape:document-units="mm"
     inkscape:current-layer="layer1"
     showgrid="true"
     units="px"
     inkscape:window-width="1920"
     inkscape:window-height="1017"
     inkscape:window-x="1912"
     inkscape:window-y="-8"
     inkscape:window-maximized="1"
     fit-margin-top="20"
     fit-margin-left="100"
     fit-margin-right="0"
     fit-margin-bottom="0"
     inkscape:pagecheckerboard="true">
    <inkscape:grid
       type="axonomgrid"
       id="grid3779"
       units="px"
       empspacing="17"
       spacingy="1.1322923"
       gridanglex="27"
       gridanglez="27"
       visible="false"
       enabled="false"
       originx="-494.09471"
       originy="-1166.0753" />
  </sodipodi:namedview>
  <metadata
     id="metadata5">
    <rdf:RDF>
      <cc:Work
         rdf:about="">
        <dc:format>image/svg+xml</dc:format>
        <dc:type
           rdf:resource="http://purl.org/dc/dcmitype/StillImage" />
        <dc:title></dc:title>
      </cc:Work>
    </rdf:RDF>
  </metadata>
  <g
     inkscape:label="Layer 1"
     inkscape:groupmode="layer"
     id="layer1"
     transform="translate(-494.09504,1157.7035)">
    <g
       id="g1487"
       style="font-style:normal;font-variant:normal;font-weight:normal;font-stretch:normal;font-size:286.31991577px;line-height:1.25;font-family:'Acherus Grotesque';-inkscape-font-specification:'Acherus Grotesque';letter-spacing:0px;word-spacing:0px;fill:url(#linearGradient1529);fill-opacity:1;stroke:none;stroke-width:1.49124956;filter:url(#filter1515)"
       transform="matrix(0.91445514,0.50689076,-0.88991838,0.60025753,-845.9211,-724.44192)"
       aria-label="IX">
      <path
         inkscape:connector-curvature="0"
         id="path1483"
         style="font-style:normal;font-variant:normal;font-weight:normal;font-stretch:normal;font-family:Anurati;-inkscape-font-specification:Anurati;fill:url(#linearGradient1529);fill-opacity:1;stroke-width:1.49124956"
         d="m 608.76341,-1140.3494 -38.08055,-37.7942 v 229.05589 l 38.08055,-38.36687 z" />
      <path
         inkscape:connector-curvature="0"
         id="path1485"
         style="font-style:normal;font-variant:normal;font-weight:normal;font-stretch:normal;font-family:Anurati;-inkscape-font-specification:Anurati;fill:url(#linearGradient1529);fill-opacity:1;stroke-width:1.49124956"
         d="m 659.9073,-1178.1436 h -48.9607 l 89.90445,114.5279 24.05087,-30.9225 z m -48.9607,229.05589 h 48.9607 l 64.99462,-83.60539 -24.05087,-30.9226 z m 227.62433,-229.05589 h -48.38806 l -65.28095,83.6054 24.3372,30.9225 z m -113.66901,145.4505 65.28095,83.60539 h 48.38806 l -89.33181,-114.52799 z" />
    </g>
    <rect
       style="opacity:0.92299996;fill:none;fill-opacity:0;stroke:none;stroke-width:0.26458332;stroke-opacity:1"
       id="rect1388"
       width="457.35117"
       height="400.65479"
       x="506.79294"
       y="-1216.1722"
       inkscape:export-filename="D:\code\isonex\isonexwebsite\wwwroot\images\loader-logo.png"
       inkscape:export-xdpi="19.08"
       inkscape:export-ydpi="19.08" />
  </g>
</svg>
